<svg version="1.1" viewBox="0 0 16 16" xmlns="http://www.w3.org/2000/svg">
    <style id="current-color-scheme" type="text/css">.ColorScheme-Text { 
     fill:#232629;
	 }</style>
        <path class="ColorScheme-Text" d="m11.500477 1.9999316-4.67e-4 1.0001853h1.499945v9.9999131h-1.499922l2.5e-4 0.999936h2.499604v-11.999785z"/>
        <path class="ColorScheme-Text" d="m6.499855 4.999961-3.0000573 3.0000573 3.0000573 3.0000567v-2.000121h0.999936v-1.9998717h-0.999936z"/>
        <path class="ColorScheme-Text" d="m9.499746 4.999961v2.0001213h-0.999936v1.9998717h0.999936v2.000121l3.000057-3.0000567z"/>
        <path class="ColorScheme-Text" d="m2.0002042 1.999793v12.000062h2.4996405l2.493e-4 -0.999963h-1.4999178v-9.9999136h1.4999178l-2.493e-4 -1.0001854z"/>
</svg>
