<svg version="1.1" viewBox="0 0 22 22" xmlns="http://www.w3.org/2000/svg">
    <style id="current-color-scheme" type="text/css">.ColorScheme-Text { 
     fill:#eff0f1;
	 }</style>
        <path class="ColorScheme-Text" d="m6.6674734 3.0000001v1.2999455h2.0158763v13.400113h-2.0158763v1.299941h3.3158216v-16z"/>
        <path class="ColorScheme-Text" d="m11.552702 3.0000001v15.999999h3.317017v-1.29994h-2.017072v-13.400114h2.017072v-1.2999454z"/>
        <path class="ColorScheme-Text" d="m16.852739 6.99991-4.000092 4.000097 4.000092 4.000088v-2.666835h1.333257v-2.6665156h-1.333257z"/>
        <path class="ColorScheme-Text" d="m4.6832576 6.999905v2.6668291h-1.3332576v2.6665199h1.3332576v2.666836l4.0000921-4.000083z"/>
</svg>
