<svg version="1.1" viewBox="0 0 22 22" xmlns="http://www.w3.org/2000/svg">
    <style id="current-color-scheme" type="text/css">.ColorScheme-Text { 
    fill:#232629;
}</style>
        <path class="ColorScheme-Text" d="m7.0007377 3-6.222e-4 1.3335806h1.9999206v13.333219h-1.9998837l2.96e-4 1.333247h3.3328306v-15.999715z"/>
        <path class="ColorScheme-Text" d="M 7.0001098,7.0001133 3,11.00019 7.0001098,15.000303 V 12.333437 H 8.333353 V 9.6669417 H 7.0001098 Z"/>
        <path class="ColorScheme-Text" d="m14.999939 7.0001133v2.6668284h-1.333243v2.6664953h1.333243v2.666866l4.000061-4.000113z"/>
        <path class="ColorScheme-Text" d="m11.666812 3v16.000047h3.332793l3.34e-4 -1.333247h-1.999884v-13.333219h1.999884l-3.34e-4 -1.3335805z"/>
</svg>
